<?xml version="1.0" encoding="UTF-8"?>
<session version="1.0">
<refactoring comment="Copy 2 packages to &apos;jeux-ejb/ejbModule&apos;&#x0D;&#x0A;- Original project: &apos;jeux-emb&apos;&#x0D;&#x0A;- Destination element: &apos;jeux-ejb/ejbModule&apos;&#x0D;&#x0A;- Original elements:&#x0D;&#x0A;     jeux-emb/src/jeux.emb.dom&#x0D;&#x0A;     jeux-emb/src/jeux.emb.service.mock" description="Copy packages" destination="=jeux-ejb/ejbModule" element1="/src&lt;jeux.emb.dom" element2="/src&lt;jeux.emb.service.mock" flags="589830" fragments="2" id="org.eclipse.jdt.ui.copy" policy="org.eclipse.jdt.ui.copyPackages" stamp="1483712446097" version="1.0"/>
</session>