janv. 05, 2017 11:22:18 AM utilserveurs.model.Server <init>
CONFIG: path.dir.data : C:\TEMP\tp-java-ee-logging\mysql-5.7
janv. 05, 2017 11:22:18 AM utilserveurs.model.Server <init>
CONFIG: path.dir.data : C:\TEMP\tp-java-ee-logging\tomcat-8.0
